src_test/ethernet_rx/ethernet_rx.vcd
$date
	Sat Aug 14 13:27:56 2021
$end
$version
	Icarus Verilog
$end
$timescale
	1ps
$end
$scope module ethernet_rx $end
$var wire 1 ! reset $end
$var wire 1 " rx_clk $end
$var wire 1 # rx_dv $end
$var wire 4 $ rxd [3:0] $end
$var reg 7 % byte_counter [6:0] $end
$var reg 48 & dst_mac [47:0] $end
$var reg 16 ' ethtype [15:0] $end
$var reg 512 ( payload [511:0] $end
$var reg 48 ) src_mac [47:0] $end
$var reg 3 * state [2:0] $end
$var reg 1 + upper_half $end
$upscope $end
$enddefinitions $end
#0
$dumpvars
x+
b0 *
b0 )
b0 (
b0 '
b0 &
bx %
bz $
z#
1"
1!
$end
#1000
0"
#2000
1"
#3000
0"
#4000
1"
#5000
0"
#6000
1"
#7000
0"
#8000
1"
#9000
0"
#10000
1"
#11000
0"
#12000
1"
#13000
0"
#14000
1"
#15000
0"
#16000
1"
#17000
0"
#18000
0!
0#
b0 $
1"
#19000
0"
#20000
b101 $
1#
1"
#21000
0"
#22000
b1 *
1+
b0 %
1"
#23000
0"
#24000
1"
#25000
0"
#26000
1"
#27000
0"
#28000
1"
#29000
0"
#30000
1"
#31000
0"
#32000
1"
#33000
0"
#34000
1"
#35000
0"
#36000
1"
#37000
0"
#38000
1"
#39000
0"
#40000
1"
#41000
0"
#42000
1"
#43000
0"
#44000
1"
#45000
0"
#46000
1"
#47000
0"
#48000
1"
#49000
0"
#50000
b1101 $
1"
#51000
0"
#52000
b1 $
b10 *
1"
#53000
0"
#54000
b0 $
0+
b10000 &
1"
#55000
0"
#56000
b11 $
1+
b1 %
1"
#57000
0"
#58000
b10 $
0+
b11000000010000 &
1"
#59000
0"
#60000
b101 $
1+
b11001000010000 &
b10 %
1"
#61000
0"
#62000
b100 $
0+
b10100000011001000010000 &
1"
#63000
0"
#64000
b111 $
1+
b10101000011001000010000 &
b11 %
1"
#65000
0"
#66000
b110 $
0+
b1110000010101000011001000010000 &
1"
#67000
0"
#68000
b1001 $
1+
b1110110010101000011001000010000 &
b100 %
1"
#69000
0"
#70000
b1000 $
0+
b1001000001110110010101000011001000010000 &
1"
#71000
0"
#72000
b1011 $
1+
b1001100001110110010101000011001000010000 &
b101 %
1"
#73000
0"
#74000
b1010 $
0+
b101100001001100001110110010101000011001000010000 &
1"
#75000
0"
#76000
b0 $
b11 *
1+
b101110101001100001110110010101000011001000010000 &
b0 %
1"
#77000
0"
#78000
0+
1"
#79000
0"
#80000
1+
b1 %
1"
#81000
0"
#82000
b1110 $
0+
1"
#83000
0"
#84000
b1100 $
1+
b111000000000 )
b10 %
1"
#85000
0"
#86000
b100 $
0+
b110000000000111000000000 )
1"
#87000
0"
#88000
b1000 $
1+
b110001000000111000000000 )
b11 %
1"
#89000
0"
#90000
b110 $
0+
b10000000110001000000111000000000 )
1"
#91000
0"
#92000
b11 $
1+
b10000110110001000000111000000000 )
b100 %
1"
#93000
0"
#94000
b1 $
0+
b11000010000110110001000000111000000000 )
1"
#95000
0"
#96000
b1101 $
1+
b11000110000110110001000000111000000000 )
b101 %
1"
#97000
0"
#98000
b111 $
0+
b110100000011000110000110110001000000111000000000 )
1"
#99000
0"
#100000
b1000 $
b100 *
1+
b110101110011000110000110110001000000111000000000 )
b0 %
1"
#101000
0"
#102000
b0 $
0+
b10000000 '
1"
#103000
0"
#104000
b110 $
1+
b1 %
1"
#105000
0"
#106000
b0 $
0+
b110000010000000 '
1"
#107000
0"
#108000
b101 *
1+
b0 %
1"
#109000
0"
#110000
0+
1"
#111000
0"
#112000
b1 $
1+
b1 %
1"
#113000
0"
#114000
b0 $
0+
b1000000000000 (
1"
#115000
0"
#116000
b1000 $
1+
b10 %
1"
#117000
0"
#118000
b0 $
0+
b100000000001000000000000 (
1"
#119000
0"
#120000
1+
b11 %
1"
#121000
0"
#122000
0+
1"
#123000
0"
#124000
b110 $
1+
b100 %
1"
#125000
0"
#126000
b0 $
0+
b110000000000000100000000001000000000000 (
1"
#127000
0"
#128000
b100 $
1+
b101 %
1"
#129000
0"
#130000
b0 $
0+
b10000000110000000000000100000000001000000000000 (
1"
#131000
0"
#132000
1+
b110 %
1"
#133000
0"
#134000
0+
1"
#135000
0"
#136000
b1 $
1+
b111 %
1"
#137000
0"
#138000
b0 $
0+
b1000000000000010000000110000000000000100000000001000000000000 (
1"
#139000
0"
#140000
1+
b1000 %
1"
#141000
0"
#142000
0+
1"
#143000
0"
#144000
1+
b1001 %
1"
#145000
0"
#146000
b1110 $
0+
1"
#147000
0"
#148000
b1100 $
1+
b1110000000000001000000000000010000000110000000000000100000000001000000000000 (
b1010 %
1"
#149000
0"
#150000
b100 $
0+
b1100000000001110000000000001000000000000010000000110000000000000100000000001000000000000 (
1"
#151000
0"
#152000
b1000 $
1+
b1100010000001110000000000001000000000000010000000110000000000000100000000001000000000000 (
b1011 %
1"
#153000
0"
#154000
b110 $
0+
b100000001100010000001110000000000001000000000000010000000110000000000000100000000001000000000000 (
1"
#155000
0"
#156000
b11 $
1+
b100001101100010000001110000000000001000000000000010000000110000000000000100000000001000000000000 (
b1100 %
1"
#157000
0"
#158000
b1 $
0+
b110000100001101100010000001110000000000001000000000000010000000110000000000000100000000001000000000000 (
1"
#159000
0"
#160000
b1101 $
1+
b110001100001101100010000001110000000000001000000000000010000000110000000000000100000000001000000000000 (
b1101 %
1"
#161000
0"
#162000
b111 $
0+
b1101000000110001100001101100010000001110000000000001000000000000010000000110000000000000100000000001000000000000 (
1"
#163000
0"
#164000
b0 $
1+
b1101011100110001100001101100010000001110000000000001000000000000010000000110000000000000100000000001000000000000 (
b1110 %
1"
#165000
0"
#166000
b1100 $
0+
1"
#167000
0"
#168000
b1000 $
1+
b11001101011100110001100001101100010000001110000000000001000000000000010000000110000000000000100000000001000000000000 (
b1111 %
1"
#169000
0"
#170000
b1010 $
0+
b10000000000011001101011100110001100001101100010000001110000000000001000000000000010000000110000000000000100000000001000000000000 (
1"
#171000
0"
#172000
b0 $
1+
b10001010000011001101011100110001100001101100010000001110000000000001000000000000010000000110000000000000100000000001000000000000 (
b10000 %
1"
#173000
0"
#174000
0+
1"
#175000
0"
#176000
b1111 $
1+
b10001 %
1"
#177000
0"
#178000
b0 $
0+
b111100000000000010001010000011001101011100110001100001101100010000001110000000000001000000000000010000000110000000000000100000000001000000000000 (
1"
#179000
0"
#180000
1+
b10010 %
1"
#181000
0"
#182000
0+
1"
#183000
0"
#184000
1+
b10011 %
1"
#185000
0"
#186000
0+
1"
#187000
0"
#188000
1+
b10100 %
1"
#189000
0"
#190000
0+
1"
#191000
0"
#192000
1+
b10101 %
1"
#193000
0"
#194000
0+
1"
#195000
0"
#196000
1+
b10110 %
1"
#197000
0"
#198000
0+
1"
#199000
0"
#200000
1+
b10111 %
1"
#201000
0"
#202000
0+
1"
#203000
0"
#204000
1+
b11000 %
1"
#205000
0"
#206000
b1100 $
0+
1"
#207000
0"
#208000
b1000 $
1+
b1100000000000000000000000000000000000000000000000000111100000000000010001010000011001101011100110001100001101100010000001110000000000001000000000000010000000110000000000000100000000001000000000000 (
b11001 %
1"
#209000
0"
#210000
b1010 $
0+
b1000000000001100000000000000000000000000000000000000000000000000111100000000000010001010000011001101011100110001100001101100010000001110000000000001000000000000010000000110000000000000100000000001000000000000 (
1"
#211000
0"
#212000
b100 $
1+
b1000101000001100000000000000000000000000000000000000000000000000111100000000000010001010000011001101011100110001100001101100010000001110000000000001000000000000010000000110000000000000100000000001000000000000 (
b11010 %
1"
#213000
0"
#214000
b110 $
0+
b10000001000101000001100000000000000000000000000000000000000000000000000111100000000000010001010000011001101011100110001100001101100010000001110000000000001000000000000010000000110000000000000100000000001000000000000 (
1"
#215000
0"
#216000
b0 $
1+
b10001101000101000001100000000000000000000000000000000000000000000000000111100000000000010001010000011001101011100110001100001101100010000001110000000000001000000000000010000000110000000000000100000000001000000000000 (
b11011 %
1"
#217000
0"
#218000
0+
1"
#219000
0"
#220000
1+
b11100 %
1"
#221000
0"
#222000
0+
1"
#223000
0"
#224000
1+
b11101 %
1"
#225000
0"
#226000
0+
1"
#227000
0"
#228000
1+
b11110 %
1"
#229000
0"
#230000
0+
1"
#231000
0"
#232000
1+
b11111 %
1"
#233000
0"
#234000
0+
1"
#235000
0"
#236000
1+
b100000 %
1"
#237000
0"
#238000
0+
1"
#239000
0"
#240000
1+
b100001 %
1"
#241000
0"
#242000
0+
1"
#243000
0"
#244000
1+
b100010 %
1"
#245000
0"
#246000
0+
1"
#247000
0"
#248000
1+
b100011 %
1"
#249000
0"
#250000
0+
1"
#251000
0"
#252000
1+
b100100 %
1"
#253000
0"
#254000
0+
1"
#255000
0"
#256000
1+
b100101 %
1"
#257000
0"
#258000
0+
1"
#259000
0"
#260000
1+
b100110 %
1"
#261000
0"
#262000
0+
1"
#263000
0"
#264000
1+
b100111 %
1"
#265000
0"
#266000
0+
1"
#267000
0"
#268000
1+
b101000 %
1"
#269000
0"
#270000
0+
1"
#271000
0"
#272000
1+
b101001 %
1"
#273000
0"
#274000
0+
1"
#275000
0"
#276000
1+
b101010 %
1"
#277000
0"
#278000
0+
1"
#279000
0"
#280000
1+
b101011 %
1"
#281000
0"
#282000
0+
1"
#283000
0"
#284000
1+
b101100 %
1"
#285000
0"
#286000
0+
1"
#287000
0"
#288000
1+
b101101 %
1"
#289000
0"
#290000
0+
1"
#291000
0"
#292000
b10 $
1+
b101110 %
1"
#293000
0"
#294000
b100 $
0+
b10000000000000000000000000000000000000000000000000000000000000000000000000000000000000000000000000000000000000000000000000000000000000000000000000000000000000010001101000101000001100000000000000000000000000000000000000000000000000111100000000000010001010000011001101011100110001100001101100010000001110000000000001000000000000010000000110000000000000100000000001000000000000 (
1"
#295000
0"
#296000
b1110 $
1+
b10010000000000000000000000000000000000000000000000000000000000000000000000000000000000000000000000000000000000000000000000000000000000000000000000000000000000010001101000101000001100000000000000000000000000000000000000000000000000111100000000000010001010000011001101011100110001100001101100010000001110000000000001000000000000010000000110000000000000100000000001000000000000 (
b101111 %
1"
#297000
0"
#298000
b1010 $
0+
b111000000010010000000000000000000000000000000000000000000000000000000000000000000000000000000000000000000000000000000000000000000000000000000000000000000000000000000000010001101000101000001100000000000000000000000000000000000000000000000000111100000000000010001010000011001101011100110001100001101100010000001110000000000001000000000000010000000110000000000000100000000001000000000000 (
1"
#299000
0"
#300000
b11 $
1+
b111010100010010000000000000000000000000000000000000000000000000000000000000000000000000000000000000000000000000000000000000000000000000000000000000000000000000000000000010001101000101000001100000000000000000000000000000000000000000000000000111100000000000010001010000011001101011100110001100001101100010000001110000000000001000000000000010000000110000000000000100000000001000000000000 (
b110000 %
1"
#301000
0"
#302000
b111 $
0+
b110000111010100010010000000000000000000000000000000000000000000000000000000000000000000000000000000000000000000000000000000000000000000000000000000000000000000000000000000000010001101000101000001100000000000000000000000000000000000000000000000000111100000000000010001010000011001101011100110001100001101100010000001110000000000001000000000000010000000110000000000000100000000001000000000000 (
1"
#303000
0"
#304000
b1100 $
1+
b110111111010100010010000000000000000000000000000000000000000000000000000000000000000000000000000000000000000000000000000000000000000000000000000000000000000000000000000000000010001101000101000001100000000000000000000000000000000000000000000000000111100000000000010001010000011001101011100110001100001101100010000001110000000000001000000000000010000000110000000000000100000000001000000000000 (
b110001 %
1"
#305000
0"
#306000
b1000 $
0+
b1100000000110111111010100010010000000000000000000000000000000000000000000000000000000000000000000000000000000000000000000000000000000000000000000000000000000000000000000000000000000000010001101000101000001100000000000000000000000000000000000000000000000000111100000000000010001010000011001101011100110001100001101100010000001110000000000001000000000000010000000110000000000000100000000001000000000000 (
1"
#307000
0"
#308000
b0 $
0#
1+
b1100100000110111111010100010010000000000000000000000000000000000000000000000000000000000000000000000000000000000000000000000000000000000000000000000000000000000000000000000000000000000010001101000101000001100000000000000000000000000000000000000000000000000111100000000000010001010000011001101011100110001100001101100010000001110000000000001000000000000010000000110000000000000100000000001000000000000 (
b110010 %
1"
#309000
0"
#310000
b110 *
1"
#311000
0"
#312000
b0 *
1"
#313000
0"
#314000
1"
#315000
0"
#316000
1"
#317000
0"
#318000
1"
#319000
0"
#320000
1"
#321000
0"
#322000
1"
#323000
0"
#324000
1"
#325000
0"
#326000
1"
#327000
0"
#328000
1"
#329000
0"
#330000
1"
#331000
0"
#332000
b101 $
1#
1"
#333000
0"
#334000
b1 *
b0 %
1"
#335000
0"
#336000
1"
#337000
0"
#338000
1"
#339000
0"
#340000
1"
#341000
0"
#342000
1"
#343000
0"
#344000
1"
#345000
0"
#346000
1"
#347000
0"
#348000
1"
#349000
0"
#350000
1"
#351000
0"
#352000
1"
#353000
0"
#354000
1"
#355000
0"
#356000
1"
#357000
0"
#358000
1"
#359000
0"
#360000
1"
#361000
0"
#362000
b1101 $
1"
#363000
0"
#364000
b1111 $
b10 *
1"
#365000
0"
#366000
0+
b101110101001100001110110010101000011001011110000 &
1"
#367000
0"
#368000
1+
b101110101001100001110110010101000011001011111111 &
b1 %
1"
#369000
0"
#370000
0+
b101110101001100001110110010101001111001011111111 &
1"
#371000
0"
#372000
1+
b101110101001100001110110010101001111111111111111 &
b10 %
1"
#373000
0"
#374000
0+
b101110101001100001110110111101001111111111111111 &
1"
#375000
0"
#376000
1+
b101110101001100001110110111111111111111111111111 &
b11 %
1"
#377000
0"
#378000
0+
b101110101001100011110110111111111111111111111111 &
1"
#379000
0"
#380000
1+
b101110101001100011111111111111111111111111111111 &
b100 %
1"
#381000
0"
#382000
0+
b101110101111100011111111111111111111111111111111 &
1"
#383000
0"
#384000
b0 $
1+
b101110101111111111111111111111111111111111111111 &
b101 %
1"
#385000
0"
#386000
0+
b10101111111111111111111111111111111111111111 &
1"
#387000
0"
#388000
b11 *
1+
b1111111111111111111111111111111111111111 &
b0 %
1"
#389000
0"
#390000
0+
1"
#391000
0"
#392000
1+
b1 %
1"
#393000
0"
#394000
b1110 $
0+
1"
#395000
0"
#396000
b1100 $
1+
b10 %
1"
#397000
0"
#398000
b100 $
0+
1"
#399000
0"
#400000
b1000 $
1+
b11 %
1"
#401000
0"
#402000
b110 $
0+
1"
#403000
0"
#404000
b11 $
1+
b100 %
1"
#405000
0"
#406000
b1 $
0+
1"
#407000
0"
#408000
b1101 $
1+
b101 %
1"
#409000
0"
#410000
b111 $
0+
1"
#411000
0"
#412000
b1000 $
b100 *
1+
b0 %
1"
#413000
0"
#414000
b0 $
0+
1"
#415000
0"
#416000
b110 $
1+
b1 %
1"
#417000
0"
#418000
b0 $
0+
1"
#419000
0"
#420000
b101 *
1+
b0 %
1"
#421000
0"
#422000
0+
1"
#423000
0"
#424000
b1 $
1+
b1 %
1"
#425000
0"
#426000
b0 $
0+
1"
#427000
0"
#428000
b1000 $
1+
b10 %
1"
#429000
0"
#430000
b0 $
0+
1"
#431000
0"
#432000
1+
b11 %
1"
#433000
0"
#434000
0+
1"
#435000
0"
#436000
b110 $
1+
b100 %
1"
#437000
0"
#438000
b0 $
0+
1"
#439000
0"
#440000
b100 $
1+
b101 %
1"
#441000
0"
#442000
b0 $
0+
1"
#443000
0"
#444000
1+
b110 %
1"
#445000
0"
#446000
0+
1"
#447000
0"
#448000
b1 $
1+
b111 %
1"
#449000
0"
#450000
b0 $
0+
1"
#451000
0"
#452000
1+
b1000 %
1"
#453000
0"
#454000
0+
1"
#455000
0"
#456000
1+
b1001 %
1"
#457000
0"
#458000
b1110 $
0+
1"
#459000
0"
#460000
b1100 $
1+
b1010 %
1"
#461000
0"
#462000
b100 $
0+
1"
#463000
0"
#464000
b1000 $
1+
b1011 %
1"
#465000
0"
#466000
b110 $
0+
1"
#467000
0"
#468000
b11 $
1+
b1100 %
1"
#469000
0"
#470000
b1 $
0+
1"
#471000
0"
#472000
b1101 $
1+
b1101 %
1"
#473000
0"
#474000
b111 $
0+
1"
#475000
0"
#476000
b0 $
1+
b1110 %
1"
#477000
0"
#478000
b1100 $
0+
1"
#479000
0"
#480000
b1000 $
1+
b1111 %
1"
#481000
0"
#482000
b1010 $
0+
1"
#483000
0"
#484000
b0 $
1+
b10000 %
1"
#485000
0"
#486000
0+
1"
#487000
0"
#488000
b1111 $
1+
b10001 %
1"
#489000
0"
#490000
b0 $
0+
1"
#491000
0"
#492000
1+
b10010 %
1"
#493000
0"
#494000
0+
1"
#495000
0"
#496000
1+
b10011 %
1"
#497000
0"
#498000
0+
1"
#499000
0"
#500000
1+
b10100 %
1"
#501000
0"
#502000
0+
1"
#503000
0"
#504000
1+
b10101 %
1"
#505000
0"
#506000
0+
1"
#507000
0"
#508000
1+
b10110 %
1"
#509000
0"
#510000
0+
1"
#511000
0"
#512000
1+
b10111 %
1"
#513000
0"
#514000
0+
1"
#515000
0"
#516000
1+
b11000 %
1"
#517000
0"
#518000
b1100 $
0+
1"
#519000
0"
#520000
b1000 $
1+
b11001 %
1"
#521000
0"
#522000
b1010 $
0+
1"
#523000
0"
#524000
b100 $
1+
b11010 %
1"
#525000
0"
#526000
b110 $
0+
1"
#527000
0"
#528000
b0 $
1+
b11011 %
1"
#529000
0"
#530000
0+
1"
#531000
0"
#532000
1+
b11100 %
1"
#533000
0"
#534000
0+
1"
#535000
0"
#536000
1+
b11101 %
1"
#537000
0"
#538000
0+
1"
#539000
0"
#540000
1+
b11110 %
1"
#541000
0"
#542000
0+
1"
#543000
0"
#544000
1+
b11111 %
1"
#545000
0"
#546000
0+
1"
#547000
0"
#548000
1+
b100000 %
1"
#549000
0"
#550000
0+
1"
#551000
0"
#552000
1+
b100001 %
1"
#553000
0"
#554000
0+
1"
#555000
0"
#556000
1+
b100010 %
1"
#557000
0"
#558000
0+
1"
#559000
0"
#560000
1+
b100011 %
1"
#561000
0"
#562000
0+
1"
#563000
0"
#564000
1+
b100100 %
1"
#565000
0"
#566000
0+
1"
#567000
0"
#568000
1+
b100101 %
1"
#569000
0"
#570000
0+
1"
#571000
0"
#572000
1+
b100110 %
1"
#573000
0"
#574000
0+
1"
#575000
0"
#576000
1+
b100111 %
1"
#577000
0"
#578000
0+
1"
#579000
0"
#580000
1+
b101000 %
1"
#581000
0"
#582000
0+
1"
#583000
0"
#584000
1+
b101001 %
1"
#585000
0"
#586000
0+
1"
#587000
0"
#588000
1+
b101010 %
1"
#589000
0"
#590000
0+
1"
#591000
0"
#592000
1+
b101011 %
1"
#593000
0"
#594000
0+
1"
#595000
0"
#596000
1+
b101100 %
1"
#597000
0"
#598000
0+
1"
#599000
0"
#600000
1+
b101101 %
1"
#601000
0"
#602000
0+
1"
#603000
0"
#604000
b110 $
1+
b101110 %
1"
#605000
0"
#606000
b11 $
0+
b1100100000110111111010100110010000000000000000000000000000000000000000000000000000000000000000000000000000000000000000000000000000000000000000000000000000000000000000000000000000000000010001101000101000001100000000000000000000000000000000000000000000000000111100000000000010001010000011001101011100110001100001101100010000001110000000000001000000000000010000000110000000000000100000000001000000000000 (
1"
#607000
0"
#608000
1+
b1100100000110111111010100110001100000000000000000000000000000000000000000000000000000000000000000000000000000000000000000000000000000000000000000000000000000000000000000000000000000000010001101000101000001100000000000000000000000000000000000000000000000000111100000000000010001010000011001101011100110001100001101100010000001110000000000001000000000000010000000110000000000000100000000001000000000000 (
b101111 %
1"
#609000
0"
#610000
b1000 $
0+
b1100100000110111001110100110001100000000000000000000000000000000000000000000000000000000000000000000000000000000000000000000000000000000000000000000000000000000000000000000000000000000010001101000101000001100000000000000000000000000000000000000000000000000111100000000000010001010000011001101011100110001100001101100010000001110000000000001000000000000010000000110000000000000100000000001000000000000 (
1"
#611000
0"
#612000
b1010 $
1+
b1100100000110111001110000110001100000000000000000000000000000000000000000000000000000000000000000000000000000000000000000000000000000000000000000000000000000000000000000000000000000000010001101000101000001100000000000000000000000000000000000000000000000000111100000000000010001010000011001101011100110001100001101100010000001110000000000001000000000000010000000110000000000000100000000001000000000000 (
b110000 %
1"
#613000
0"
#614000
b110 $
0+
b1100100010100111001110000110001100000000000000000000000000000000000000000000000000000000000000000000000000000000000000000000000000000000000000000000000000000000000000000000000000000000010001101000101000001100000000000000000000000000000000000000000000000000111100000000000010001010000011001101011100110001100001101100010000001110000000000001000000000000010000000110000000000000100000000001000000000000 (
1"
#615000
0"
#616000
b1111 $
1+
b1100100010100110001110000110001100000000000000000000000000000000000000000000000000000000000000000000000000000000000000000000000000000000000000000000000000000000000000000000000000000000010001101000101000001100000000000000000000000000000000000000000000000000111100000000000010001010000011001101011100110001100001101100010000001110000000000001000000000000010000000110000000000000100000000001000000000000 (
b110001 %
1"
#617000
0"
#618000
0+
b1111100010100110001110000110001100000000000000000000000000000000000000000000000000000000000000000000000000000000000000000000000000000000000000000000000000000000000000000000000000000000010001101000101000001100000000000000000000000000000000000000000000000000111100000000000010001010000011001101011100110001100001101100010000001110000000000001000000000000010000000110000000000000100000000001000000000000 (
1"
