src_test/ethernet_rx/ethernet_rx.vcd
$date
	Fri Aug 13 20:37:34 2021
$end
$version
	Icarus Verilog
$end
$timescale
	1ps
$end
$scope module ethernet_rx $end
$var wire 1 ! reset $end
$var wire 1 " rx_clk $end
$var wire 1 # rx_dv $end
$var wire 4 $ rxd [3:0] $end
$var reg 11 % nibble_counter [10:0] $end
$var reg 8192 & payload [8191:0] $end
$var reg 2 ' state [1:0] $end
$upscope $end
$enddefinitions $end
#0
$dumpvars
b0 '
bx &
bx %
b101 $
1#
1"
z!
$end
#1000
0"
#2000
b1 '
b0 %
1"
#3000
0"
#4000
b1 %
bx0101 &
1"
#5000
0"
#6000
b10 %
bx01010101 &
1"
#7000
0"
#8000
b11 %
bx010101010101 &
1"
#9000
0"
#10000
b100 %
bx0101010101010101 &
1"
#11000
0"
#12000
b101 %
bx01010101010101010101 &
1"
#13000
0"
#14000
b110 %
bx010101010101010101010101 &
1"
#15000
0"
#16000
b111 %
bx0101010101010101010101010101 &
1"
#17000
0"
#18000
b1000 %
bx01010101010101010101010101010101 &
1"
#19000
0"
#20000
b1001 %
bx010101010101010101010101010101010101 &
1"
#21000
0"
#22000
b1010 %
bx0101010101010101010101010101010101010101 &
1"
#23000
0"
#24000
b1011 %
bx01010101010101010101010101010101010101010101 &
1"
#25000
0"
#26000
b1100 %
bx010101010101010101010101010101010101010101010101 &
1"
#27000
0"
#28000
b1101 %
bx0101010101010101010101010101010101010101010101010101 &
1"
#29000
0"
#30000
b1101 $
b1110 %
bx01010101010101010101010101010101010101010101010101010101 &
1"
#31000
0"
#32000
b1000 $
b1111 %
bx110101010101010101010101010101010101010101010101010101010101 &
1"
#33000
0"
#34000
b110 $
b10000 %
bx1000110101010101010101010101010101010101010101010101010101010101 &
1"
#35000
0"
#36000
b101 $
b10001 %
bx01101000110101010101010101010101010101010101010101010101010101010101 &
1"
#37000
0"
#38000
b110 $
b10010 %
bx010101101000110101010101010101010101010101010101010101010101010101010101 &
1"
#39000
0"
#40000
b1100 $
b10011 %
bx0110010101101000110101010101010101010101010101010101010101010101010101010101 &
1"
#41000
0"
#42000
b110 $
b10100 %
bx11000110010101101000110101010101010101010101010101010101010101010101010101010101 &
1"
#43000
0"
#44000
b1100 $
b10101 %
bx011011000110010101101000110101010101010101010101010101010101010101010101010101010101 &
1"
#45000
0"
#46000
b110 $
b10110 %
bx1100011011000110010101101000110101010101010101010101010101010101010101010101010101010101 &
1"
#47000
0"
#48000
b1111 $
b10111 %
bx01101100011011000110010101101000110101010101010101010101010101010101010101010101010101010101 &
1"
#49000
0"
#50000
b110 $
b11000 %
bx111101101100011011000110010101101000110101010101010101010101010101010101010101010101010101010101 &
1"
#51000
0"
#52000
b0 $
b11001 %
bx0110111101101100011011000110010101101000110101010101010101010101010101010101010101010101010101010101 &
1"
#53000
0"
#54000
b10 $
b11010 %
bx00000110111101101100011011000110010101101000110101010101010101010101010101010101010101010101010101010101 &
1"
#55000
0"
#56000
b111 $
b11011 %
bx001000000110111101101100011011000110010101101000110101010101010101010101010101010101010101010101010101010101 &
1"
#57000
0"
#58000
b11100 %
bx0111001000000110111101101100011011000110010101101000110101010101010101010101010101010101010101010101010101010101 &
1"
#59000
0"
#60000
b1111 $
b11101 %
bx01110111001000000110111101101100011011000110010101101000110101010101010101010101010101010101010101010101010101010101 &
1"
#61000
0"
#62000
b110 $
b11110 %
bx111101110111001000000110111101101100011011000110010101101000110101010101010101010101010101010101010101010101010101010101 &
1"
#63000
0"
#64000
b10 $
b11111 %
bx0110111101110111001000000110111101101100011011000110010101101000110101010101010101010101010101010101010101010101010101010101 &
1"
#65000
0"
#66000
b111 $
b100000 %
bx00100110111101110111001000000110111101101100011011000110010101101000110101010101010101010101010101010101010101010101010101010101 &
1"
#67000
0"
#68000
b1100 $
b100001 %
bx011100100110111101110111001000000110111101101100011011000110010101101000110101010101010101010101010101010101010101010101010101010101 &
1"
#69000
0"
#70000
b110 $
b100010 %
bx1100011100100110111101110111001000000110111101101100011011000110010101101000110101010101010101010101010101010101010101010101010101010101 &
1"
#71000
0"
#72000
b100 $
b100011 %
bx01101100011100100110111101110111001000000110111101101100011011000110010101101000110101010101010101010101010101010101010101010101010101010101 &
1"
#73000
0"
#74000
b110 $
b100100 %
bx010001101100011100100110111101110111001000000110111101101100011011000110010101101000110101010101010101010101010101010101010101010101010101010101 &
1"
#75000
0"
#76000
b0 $
b100101 %
bx0110010001101100011100100110111101110111001000000110111101101100011011000110010101101000110101010101010101010101010101010101010101010101010101010101 &
1"
#77000
0"
#78000
b100110 %
bx00000110010001101100011100100110111101110111001000000110111101101100011011000110010101101000110101010101010101010101010101010101010101010101010101010101 &
1"
#79000
0"
#80000
b100111 %
bx000000000110010001101100011100100110111101110111001000000110111101101100011011000110010101101000110101010101010101010101010101010101010101010101010101010101 &
1"
#81000
0"
#82000
b101000 %
bx0000000000000110010001101100011100100110111101110111001000000110111101101100011011000110010101101000110101010101010101010101010101010101010101010101010101010101 &
1"
#83000
0"
#84000
b101001 %
bx00000000000000000110010001101100011100100110111101110111001000000110111101101100011011000110010101101000110101010101010101010101010101010101010101010101010101010101 &
1"
#85000
0"
#86000
b101010 %
bx000000000000000000000110010001101100011100100110111101110111001000000110111101101100011011000110010101101000110101010101010101010101010101010101010101010101010101010101 &
1"
#87000
0"
#88000
b101011 %
bx0000000000000000000000000110010001101100011100100110111101110111001000000110111101101100011011000110010101101000110101010101010101010101010101010101010101010101010101010101 &
1"
#89000
0"
#90000
b101100 %
bx00000000000000000000000000000110010001101100011100100110111101110111001000000110111101101100011011000110010101101000110101010101010101010101010101010101010101010101010101010101 &
1"
#91000
0"
#92000
b101101 %
bx000000000000000000000000000000000110010001101100011100100110111101110111001000000110111101101100011011000110010101101000110101010101010101010101010101010101010101010101010101010101 &
1"
#93000
0"
#94000
b101110 %
bx0000000000000000000000000000000000000110010001101100011100100110111101110111001000000110111101101100011011000110010101101000110101010101010101010101010101010101010101010101010101010101 &
1"
#95000
0"
#96000
b101111 %
bx00000000000000000000000000000000000000000110010001101100011100100110111101110111001000000110111101101100011011000110010101101000110101010101010101010101010101010101010101010101010101010101 &
1"
#97000
0"
#98000
b110000 %
bx000000000000000000000000000000000000000000000110010001101100011100100110111101110111001000000110111101101100011011000110010101101000110101010101010101010101010101010101010101010101010101010101 &
1"
#99000
0"
#100000
b110001 %
bx0000000000000000000000000000000000000000000000000110010001101100011100100110111101110111001000000110111101101100011011000110010101101000110101010101010101010101010101010101010101010101010101010101 &
1"
#101000
0"
#102000
b110010 %
bx00000000000000000000000000000000000000000000000000000110010001101100011100100110111101110111001000000110111101101100011011000110010101101000110101010101010101010101010101010101010101010101010101010101 &
1"
#103000
0"
#104000
b110011 %
bx000000000000000000000000000000000000000000000000000000000110010001101100011100100110111101110111001000000110111101101100011011000110010101101000110101010101010101010101010101010101010101010101010101010101 &
1"
#105000
0"
#106000
b110100 %
bx0000000000000000000000000000000000000000000000000000000000000110010001101100011100100110111101110111001000000110111101101100011011000110010101101000110101010101010101010101010101010101010101010101010101010101 &
1"
#107000
0"
#108000
b110101 %
bx00000000000000000000000000000000000000000000000000000000000000000110010001101100011100100110111101110111001000000110111101101100011011000110010101101000110101010101010101010101010101010101010101010101010101010101 &
1"
#109000
0"
#110000
b110110 %
bx000000000000000000000000000000000000000000000000000000000000000000000110010001101100011100100110111101110111001000000110111101101100011011000110010101101000110101010101010101010101010101010101010101010101010101010101 &
1"
#111000
0"
#112000
b110111 %
bx0000000000000000000000000000000000000000000000000000000000000000000000000110010001101100011100100110111101110111001000000110111101101100011011000110010101101000110101010101010101010101010101010101010101010101010101010101 &
1"
#113000
0"
#114000
b111000 %
bx00000000000000000000000000000000000000000000000000000000000000000000000000000110010001101100011100100110111101110111001000000110111101101100011011000110010101101000110101010101010101010101010101010101010101010101010101010101 &
1"
#115000
0"
#116000
b111001 %
bx000000000000000000000000000000000000000000000000000000000000000000000000000000000110010001101100011100100110111101110111001000000110111101101100011011000110010101101000110101010101010101010101010101010101010101010101010101010101 &
1"
#117000
0"
#118000
b111010 %
bx0000000000000000000000000000000000000000000000000000000000000000000000000000000000000110010001101100011100100110111101110111001000000110111101101100011011000110010101101000110101010101010101010101010101010101010101010101010101010101 &
1"
#119000
0"
#120000
b111011 %
bx00000000000000000000000000000000000000000000000000000000000000000000000000000000000000000110010001101100011100100110111101110111001000000110111101101100011011000110010101101000110101010101010101010101010101010101010101010101010101010101 &
1"
#121000
0"
#122000
b111100 %
bx000000000000000000000000000000000000000000000000000000000000000000000000000000000000000000000110010001101100011100100110111101110111001000000110111101101100011011000110010101101000110101010101010101010101010101010101010101010101010101010101 &
1"
#123000
0"
#124000
b111101 %
bx0000000000000000000000000000000000000000000000000000000000000000000000000000000000000000000000000110010001101100011100100110111101110111001000000110111101101100011011000110010101101000110101010101010101010101010101010101010101010101010101010101 &
1"
#125000
0"
#126000
b111110 %
bx00000000000000000000000000000000000000000000000000000000000000000000000000000000000000000000000000000110010001101100011100100110111101110111001000000110111101101100011011000110010101101000110101010101010101010101010101010101010101010101010101010101 &
1"
#127000
0"
#128000
b111111 %
bx000000000000000000000000000000000000000000000000000000000000000000000000000000000000000000000000000000000110010001101100011100100110111101110111001000000110111101101100011011000110010101101000110101010101010101010101010101010101010101010101010101010101 &
1"
#129000
0"
#130000
b1000000 %
bx0000000000000000000000000000000000000000000000000000000000000000000000000000000000000000000000000000000000000110010001101100011100100110111101110111001000000110111101101100011011000110010101101000110101010101010101010101010101010101010101010101010101010101 &
1"
#131000
0"
#132000
b1000001 %
bx00000000000000000000000000000000000000000000000000000000000000000000000000000000000000000000000000000000000000000110010001101100011100100110111101110111001000000110111101101100011011000110010101101000110101010101010101010101010101010101010101010101010101010101 &
1"
#133000
0"
#134000
b1000010 %
bx000000000000000000000000000000000000000000000000000000000000000000000000000000000000000000000000000000000000000000000110010001101100011100100110111101110111001000000110111101101100011011000110010101101000110101010101010101010101010101010101010101010101010101010101 &
1"
#135000
0"
#136000
b1000011 %
bx0000000000000000000000000000000000000000000000000000000000000000000000000000000000000000000000000000000000000000000000000110010001101100011100100110111101110111001000000110111101101100011011000110010101101000110101010101010101010101010101010101010101010101010101010101 &
1"
#137000
0"
#138000
b1000100 %
bx00000000000000000000000000000000000000000000000000000000000000000000000000000000000000000000000000000000000000000000000000000110010001101100011100100110111101110111001000000110111101101100011011000110010101101000110101010101010101010101010101010101010101010101010101010101 &
1"
#139000
0"
#140000
b1000101 %
bx000000000000000000000000000000000000000000000000000000000000000000000000000000000000000000000000000000000000000000000000000000000110010001101100011100100110111101110111001000000110111101101100011011000110010101101000110101010101010101010101010101010101010101010101010101010101 &
1"
#141000
0"
#142000
b1000110 %
bx0000000000000000000000000000000000000000000000000000000000000000000000000000000000000000000000000000000000000000000000000000000000000110010001101100011100100110111101110111001000000110111101101100011011000110010101101000110101010101010101010101010101010101010101010101010101010101 &
1"
#143000
0"
#144000
b1000111 %
bx00000000000000000000000000000000000000000000000000000000000000000000000000000000000000000000000000000000000000000000000000000000000000000110010001101100011100100110111101110111001000000110111101101100011011000110010101101000110101010101010101010101010101010101010101010101010101010101 &
1"
#145000
0"
#146000
b1001000 %
bx000000000000000000000000000000000000000000000000000000000000000000000000000000000000000000000000000000000000000000000000000000000000000000000110010001101100011100100110111101110111001000000110111101101100011011000110010101101000110101010101010101010101010101010101010101010101010101010101 &
1"
#147000
0"
#148000
b1001001 %
bx0000000000000000000000000000000000000000000000000000000000000000000000000000000000000000000000000000000000000000000000000000000000000000000000000110010001101100011100100110111101110111001000000110111101101100011011000110010101101000110101010101010101010101010101010101010101010101010101010101 &
1"
#149000
0"
#150000
b1001010 %
bx00000000000000000000000000000000000000000000000000000000000000000000000000000000000000000000000000000000000000000000000000000000000000000000000000000110010001101100011100100110111101110111001000000110111101101100011011000110010101101000110101010101010101010101010101010101010101010101010101010101 &
1"
#151000
0"
#152000
b1001011 %
bx000000000000000000000000000000000000000000000000000000000000000000000000000000000000000000000000000000000000000000000000000000000000000000000000000000000110010001101100011100100110111101110111001000000110111101101100011011000110010101101000110101010101010101010101010101010101010101010101010101010101 &
1"
#153000
0"
#154000
b1001100 %
bx0000000000000000000000000000000000000000000000000000000000000000000000000000000000000000000000000000000000000000000000000000000000000000000000000000000000000110010001101100011100100110111101110111001000000110111101101100011011000110010101101000110101010101010101010101010101010101010101010101010101010101 &
1"
#155000
0"
#156000
b1001101 %
bx00000000000000000000000000000000000000000000000000000000000000000000000000000000000000000000000000000000000000000000000000000000000000000000000000000000000000000110010001101100011100100110111101110111001000000110111101101100011011000110010101101000110101010101010101010101010101010101010101010101010101010101 &
1"
#157000
0"
#158000
b1001110 %
bx000000000000000000000000000000000000000000000000000000000000000000000000000000000000000000000000000000000000000000000000000000000000000000000000000000000000000000000110010001101100011100100110111101110111001000000110111101101100011011000110010101101000110101010101010101010101010101010101010101010101010101010101 &
1"
#159000
0"
#160000
b1001111 %
bx0000000000000000000000000000000000000000000000000000000000000000000000000000000000000000000000000000000000000000000000000000000000000000000000000000000000000000000000000110010001101100011100100110111101110111001000000110111101101100011011000110010101101000110101010101010101010101010101010101010101010101010101010101 &
1"
#161000
0"
#162000
b1010000 %
bx00000000000000000000000000000000000000000000000000000000000000000000000000000000000000000000000000000000000000000000000000000000000000000000000000000000000000000000000000000110010001101100011100100110111101110111001000000110111101101100011011000110010101101000110101010101010101010101010101010101010101010101010101010101 &
1"
#163000
0"
#164000
b1010001 %
bx000000000000000000000000000000000000000000000000000000000000000000000000000000000000000000000000000000000000000000000000000000000000000000000000000000000000000000000000000000000110010001101100011100100110111101110111001000000110111101101100011011000110010101101000110101010101010101010101010101010101010101010101010101010101 &
1"
#165000
0"
#166000
b1010010 %
bx0000000000000000000000000000000000000000000000000000000000000000000000000000000000000000000000000000000000000000000000000000000000000000000000000000000000000000000000000000000000000110010001101100011100100110111101110111001000000110111101101100011011000110010101101000110101010101010101010101010101010101010101010101010101010101 &
1"
#167000
0"
#168000
b1010011 %
bx00000000000000000000000000000000000000000000000000000000000000000000000000000000000000000000000000000000000000000000000000000000000000000000000000000000000000000000000000000000000000000110010001101100011100100110111101110111001000000110111101101100011011000110010101101000110101010101010101010101010101010101010101010101010101010101 &
1"
#169000
0"
#170000
b1010100 %
bx000000000000000000000000000000000000000000000000000000000000000000000000000000000000000000000000000000000000000000000000000000000000000000000000000000000000000000000000000000000000000000000110010001101100011100100110111101110111001000000110111101101100011011000110010101101000110101010101010101010101010101010101010101010101010101010101 &
1"
#171000
0"
#172000
b1010101 %
bx0000000000000000000000000000000000000000000000000000000000000000000000000000000000000000000000000000000000000000000000000000000000000000000000000000000000000000000000000000000000000000000000000110010001101100011100100110111101110111001000000110111101101100011011000110010101101000110101010101010101010101010101010101010101010101010101010101 &
1"
#173000
0"
#174000
b1010110 %
bx00000000000000000000000000000000000000000000000000000000000000000000000000000000000000000000000000000000000000000000000000000000000000000000000000000000000000000000000000000000000000000000000000000110010001101100011100100110111101110111001000000110111101101100011011000110010101101000110101010101010101010101010101010101010101010101010101010101 &
1"
#175000
0"
#176000
b1010111 %
bx000000000000000000000000000000000000000000000000000000000000000000000000000000000000000000000000000000000000000000000000000000000000000000000000000000000000000000000000000000000000000000000000000000000110010001101100011100100110111101110111001000000110111101101100011011000110010101101000110101010101010101010101010101010101010101010101010101010101 &
1"
#177000
0"
#178000
b1011000 %
bx0000000000000000000000000000000000000000000000000000000000000000000000000000000000000000000000000000000000000000000000000000000000000000000000000000000000000000000000000000000000000000000000000000000000000110010001101100011100100110111101110111001000000110111101101100011011000110010101101000110101010101010101010101010101010101010101010101010101010101 &
1"
#179000
0"
#180000
b1011001 %
bx00000000000000000000000000000000000000000000000000000000000000000000000000000000000000000000000000000000000000000000000000000000000000000000000000000000000000000000000000000000000000000000000000000000000000000110010001101100011100100110111101110111001000000110111101101100011011000110010101101000110101010101010101010101010101010101010101010101010101010101 &
1"
#181000
0"
#182000
b1011010 %
bx000000000000000000000000000000000000000000000000000000000000000000000000000000000000000000000000000000000000000000000000000000000000000000000000000000000000000000000000000000000000000000000000000000000000000000000110010001101100011100100110111101110111001000000110111101101100011011000110010101101000110101010101010101010101010101010101010101010101010101010101 &
1"
#183000
0"
#184000
b1011011 %
bx0000000000000000000000000000000000000000000000000000000000000000000000000000000000000000000000000000000000000000000000000000000000000000000000000000000000000000000000000000000000000000000000000000000000000000000000000110010001101100011100100110111101110111001000000110111101101100011011000110010101101000110101010101010101010101010101010101010101010101010101010101 &
1"
#185000
0"
#186000
b1011100 %
bx00000000000000000000000000000000000000000000000000000000000000000000000000000000000000000000000000000000000000000000000000000000000000000000000000000000000000000000000000000000000000000000000000000000000000000000000000000110010001101100011100100110111101110111001000000110111101101100011011000110010101101000110101010101010101010101010101010101010101010101010101010101 &
1"
#187000
0"
#188000
b1011101 %
bx000000000000000000000000000000000000000000000000000000000000000000000000000000000000000000000000000000000000000000000000000000000000000000000000000000000000000000000000000000000000000000000000000000000000000000000000000000000110010001101100011100100110111101110111001000000110111101101100011011000110010101101000110101010101010101010101010101010101010101010101010101010101 &
1"
#189000
0"
#190000
b1011110 %
bx0000000000000000000000000000000000000000000000000000000000000000000000000000000000000000000000000000000000000000000000000000000000000000000000000000000000000000000000000000000000000000000000000000000000000000000000000000000000000110010001101100011100100110111101110111001000000110111101101100011011000110010101101000110101010101010101010101010101010101010101010101010101010101 &
1"
#191000
0"
#192000
b1011111 %
bx00000000000000000000000000000000000000000000000000000000000000000000000000000000000000000000000000000000000000000000000000000000000000000000000000000000000000000000000000000000000000000000000000000000000000000000000000000000000000000110010001101100011100100110111101110111001000000110111101101100011011000110010101101000110101010101010101010101010101010101010101010101010101010101 &
1"
#193000
0"
#194000
b1100000 %
bx000000000000000000000000000000000000000000000000000000000000000000000000000000000000000000000000000000000000000000000000000000000000000000000000000000000000000000000000000000000000000000000000000000000000000000000000000000000000000000000110010001101100011100100110111101110111001000000110111101101100011011000110010101101000110101010101010101010101010101010101010101010101010101010101 &
1"
#195000
0"
#196000
b1100001 %
bx0000000000000000000000000000000000000000000000000000000000000000000000000000000000000000000000000000000000000000000000000000000000000000000000000000000000000000000000000000000000000000000000000000000000000000000000000000000000000000000000000110010001101100011100100110111101110111001000000110111101101100011011000110010101101000110101010101010101010101010101010101010101010101010101010101 &
1"
#197000
0"
#198000
b1100010 %
bx00000000000000000000000000000000000000000000000000000000000000000000000000000000000000000000000000000000000000000000000000000000000000000000000000000000000000000000000000000000000000000000000000000000000000000000000000000000000000000000000000000110010001101100011100100110111101110111001000000110111101101100011011000110010101101000110101010101010101010101010101010101010101010101010101010101 &
1"
#199000
0"
#200000
b1100011 %
bx000000000000000000000000000000000000000000000000000000000000000000000000000000000000000000000000000000000000000000000000000000000000000000000000000000000000000000000000000000000000000000000000000000000000000000000000000000000000000000000000000000000110010001101100011100100110111101110111001000000110111101101100011011000110010101101000110101010101010101010101010101010101010101010101010101010101 &
1"
#201000
0"
#202000
b1100100 %
bx0000000000000000000000000000000000000000000000000000000000000000000000000000000000000000000000000000000000000000000000000000000000000000000000000000000000000000000000000000000000000000000000000000000000000000000000000000000000000000000000000000000000000110010001101100011100100110111101110111001000000110111101101100011011000110010101101000110101010101010101010101010101010101010101010101010101010101 &
1"
#203000
0"
#204000
b1100101 %
bx00000000000000000000000000000000000000000000000000000000000000000000000000000000000000000000000000000000000000000000000000000000000000000000000000000000000000000000000000000000000000000000000000000000000000000000000000000000000000000000000000000000000000000110010001101100011100100110111101110111001000000110111101101100011011000110010101101000110101010101010101010101010101010101010101010101010101010101 &
1"
#205000
0"
#206000
b1100110 %
bx000000000000000000000000000000000000000000000000000000000000000000000000000000000000000000000000000000000000000000000000000000000000000000000000000000000000000000000000000000000000000000000000000000000000000000000000000000000000000000000000000000000000000000000110010001101100011100100110111101110111001000000110111101101100011011000110010101101000110101010101010101010101010101010101010101010101010101010101 &
1"
#207000
0"
#208000
b1100111 %
bx0000000000000000000000000000000000000000000000000000000000000000000000000000000000000000000000000000000000000000000000000000000000000000000000000000000000000000000000000000000000000000000000000000000000000000000000000000000000000000000000000000000000000000000000000110010001101100011100100110111101110111001000000110111101101100011011000110010101101000110101010101010101010101010101010101010101010101010101010101 &
1"
#209000
0"
#210000
b1101000 %
bx00000000000000000000000000000000000000000000000000000000000000000000000000000000000000000000000000000000000000000000000000000000000000000000000000000000000000000000000000000000000000000000000000000000000000000000000000000000000000000000000000000000000000000000000000000110010001101100011100100110111101110111001000000110111101101100011011000110010101101000110101010101010101010101010101010101010101010101010101010101 &
1"
#211000
0"
#212000
b1101001 %
bx000000000000000000000000000000000000000000000000000000000000000000000000000000000000000000000000000000000000000000000000000000000000000000000000000000000000000000000000000000000000000000000000000000000000000000000000000000000000000000000000000000000000000000000000000000000110010001101100011100100110111101110111001000000110111101101100011011000110010101101000110101010101010101010101010101010101010101010101010101010101 &
1"
#213000
0"
#214000
b1101010 %
bx0000000000000000000000000000000000000000000000000000000000000000000000000000000000000000000000000000000000000000000000000000000000000000000000000000000000000000000000000000000000000000000000000000000000000000000000000000000000000000000000000000000000000000000000000000000000000110010001101100011100100110111101110111001000000110111101101100011011000110010101101000110101010101010101010101010101010101010101010101010101010101 &
1"
#215000
0"
#216000
b1101011 %
bx00000000000000000000000000000000000000000000000000000000000000000000000000000000000000000000000000000000000000000000000000000000000000000000000000000000000000000000000000000000000000000000000000000000000000000000000000000000000000000000000000000000000000000000000000000000000000000110010001101100011100100110111101110111001000000110111101101100011011000110010101101000110101010101010101010101010101010101010101010101010101010101 &
1"
#217000
0"
#218000
b1101100 %
bx000000000000000000000000000000000000000000000000000000000000000000000000000000000000000000000000000000000000000000000000000000000000000000000000000000000000000000000000000000000000000000000000000000000000000000000000000000000000000000000000000000000000000000000000000000000000000000000110010001101100011100100110111101110111001000000110111101101100011011000110010101101000110101010101010101010101010101010101010101010101010101010101 &
1"
#219000
0"
#220000
b1101101 %
bx0000000000000000000000000000000000000000000000000000000000000000000000000000000000000000000000000000000000000000000000000000000000000000000000000000000000000000000000000000000000000000000000000000000000000000000000000000000000000000000000000000000000000000000000000000000000000000000000000110010001101100011100100110111101110111001000000110111101101100011011000110010101101000110101010101010101010101010101010101010101010101010101010101 &
1"
#221000
0"
#222000
b1101110 %
bx00000000000000000000000000000000000000000000000000000000000000000000000000000000000000000000000000000000000000000000000000000000000000000000000000000000000000000000000000000000000000000000000000000000000000000000000000000000000000000000000000000000000000000000000000000000000000000000000000000110010001101100011100100110111101110111001000000110111101101100011011000110010101101000110101010101010101010101010101010101010101010101010101010101 &
1"
#223000
0"
#224000
b1101111 %
bx000000000000000000000000000000000000000000000000000000000000000000000000000000000000000000000000000000000000000000000000000000000000000000000000000000000000000000000000000000000000000000000000000000000000000000000000000000000000000000000000000000000000000000000000000000000000000000000000000000000110010001101100011100100110111101110111001000000110111101101100011011000110010101101000110101010101010101010101010101010101010101010101010101010101 &
1"
#225000
0"
#226000
b1110000 %
bx0000000000000000000000000000000000000000000000000000000000000000000000000000000000000000000000000000000000000000000000000000000000000000000000000000000000000000000000000000000000000000000000000000000000000000000000000000000000000000000000000000000000000000000000000000000000000000000000000000000000000110010001101100011100100110111101110111001000000110111101101100011011000110010101101000110101010101010101010101010101010101010101010101010101010101 &
1"
#227000
0"
#228000
b1110001 %
bx00000000000000000000000000000000000000000000000000000000000000000000000000000000000000000000000000000000000000000000000000000000000000000000000000000000000000000000000000000000000000000000000000000000000000000000000000000000000000000000000000000000000000000000000000000000000000000000000000000000000000000110010001101100011100100110111101110111001000000110111101101100011011000110010101101000110101010101010101010101010101010101010101010101010101010101 &
1"
#229000
0"
#230000
b1110010 %
bx000000000000000000000000000000000000000000000000000000000000000000000000000000000000000000000000000000000000000000000000000000000000000000000000000000000000000000000000000000000000000000000000000000000000000000000000000000000000000000000000000000000000000000000000000000000000000000000000000000000000000000000110010001101100011100100110111101110111001000000110111101101100011011000110010101101000110101010101010101010101010101010101010101010101010101010101 &
1"
#231000
0"
#232000
b1110011 %
bx0000000000000000000000000000000000000000000000000000000000000000000000000000000000000000000000000000000000000000000000000000000000000000000000000000000000000000000000000000000000000000000000000000000000000000000000000000000000000000000000000000000000000000000000000000000000000000000000000000000000000000000000000110010001101100011100100110111101110111001000000110111101101100011011000110010101101000110101010101010101010101010101010101010101010101010101010101 &
1"
#233000
0"
#234000
b1110100 %
bx00000000000000000000000000000000000000000000000000000000000000000000000000000000000000000000000000000000000000000000000000000000000000000000000000000000000000000000000000000000000000000000000000000000000000000000000000000000000000000000000000000000000000000000000000000000000000000000000000000000000000000000000000000110010001101100011100100110111101110111001000000110111101101100011011000110010101101000110101010101010101010101010101010101010101010101010101010101 &
1"
#235000
0"
#236000
b1110101 %
bx000000000000000000000000000000000000000000000000000000000000000000000000000000000000000000000000000000000000000000000000000000000000000000000000000000000000000000000000000000000000000000000000000000000000000000000000000000000000000000000000000000000000000000000000000000000000000000000000000000000000000000000000000000000110010001101100011100100110111101110111001000000110111101101100011011000110010101101000110101010101010101010101010101010101010101010101010101010101 &
1"
#237000
0"
#238000
b1110110 %
bx0000000000000000000000000000000000000000000000000000000000000000000000000000000000000000000000000000000000000000000000000000000000000000000000000000000000000000000000000000000000000000000000000000000000000000000000000000000000000000000000000000000000000000000000000000000000000000000000000000000000000000000000000000000000000110010001101100011100100110111101110111001000000110111101101100011011000110010101101000110101010101010101010101010101010101010101010101010101010101 &
1"
#239000
0"
#240000
b1110111 %
bx00000000000000000000000000000000000000000000000000000000000000000000000000000000000000000000000000000000000000000000000000000000000000000000000000000000000000000000000000000000000000000000000000000000000000000000000000000000000000000000000000000000000000000000000000000000000000000000000000000000000000000000000000000000000000000110010001101100011100100110111101110111001000000110111101101100011011000110010101101000110101010101010101010101010101010101010101010101010101010101 &
1"
#241000
0"
#242000
b1111000 %
bx000000000000000000000000000000000000000000000000000000000000000000000000000000000000000000000000000000000000000000000000000000000000000000000000000000000000000000000000000000000000000000000000000000000000000000000000000000000000000000000000000000000000000000000000000000000000000000000000000000000000000000000000000000000000000000000110010001101100011100100110111101110111001000000110111101101100011011000110010101101000110101010101010101010101010101010101010101010101010101010101 &
1"
#243000
0"
#244000
b1111001 %
bx0000000000000000000000000000000000000000000000000000000000000000000000000000000000000000000000000000000000000000000000000000000000000000000000000000000000000000000000000000000000000000000000000000000000000000000000000000000000000000000000000000000000000000000000000000000000000000000000000000000000000000000000000000000000000000000000000110010001101100011100100110111101110111001000000110111101101100011011000110010101101000110101010101010101010101010101010101010101010101010101010101 &
1"
#245000
0"
#246000
b1111010 %
bx00000000000000000000000000000000000000000000000000000000000000000000000000000000000000000000000000000000000000000000000000000000000000000000000000000000000000000000000000000000000000000000000000000000000000000000000000000000000000000000000000000000000000000000000000000000000000000000000000000000000000000000000000000000000000000000000000000110010001101100011100100110111101110111001000000110111101101100011011000110010101101000110101010101010101010101010101010101010101010101010101010101 &
1"
#247000
0"
#248000
b1111011 %
bx000000000000000000000000000000000000000000000000000000000000000000000000000000000000000000000000000000000000000000000000000000000000000000000000000000000000000000000000000000000000000000000000000000000000000000000000000000000000000000000000000000000000000000000000000000000000000000000000000000000000000000000000000000000000000000000000000000000110010001101100011100100110111101110111001000000110111101101100011011000110010101101000110101010101010101010101010101010101010101010101010101010101 &
1"
#249000
0"
#250000
b1111100 %
bx0000000000000000000000000000000000000000000000000000000000000000000000000000000000000000000000000000000000000000000000000000000000000000000000000000000000000000000000000000000000000000000000000000000000000000000000000000000000000000000000000000000000000000000000000000000000000000000000000000000000000000000000000000000000000000000000000000000000000110010001101100011100100110111101110111001000000110111101101100011011000110010101101000110101010101010101010101010101010101010101010101010101010101 &
1"
#251000
0"
#252000
b1111101 %
bx00000000000000000000000000000000000000000000000000000000000000000000000000000000000000000000000000000000000000000000000000000000000000000000000000000000000000000000000000000000000000000000000000000000000000000000000000000000000000000000000000000000000000000000000000000000000000000000000000000000000000000000000000000000000000000000000000000000000000000110010001101100011100100110111101110111001000000110111101101100011011000110010101101000110101010101010101010101010101010101010101010101010101010101 &
1"
#253000
0"
#254000
b1111110 %
bx000000000000000000000000000000000000000000000000000000000000000000000000000000000000000000000000000000000000000000000000000000000000000000000000000000000000000000000000000000000000000000000000000000000000000000000000000000000000000000000000000000000000000000000000000000000000000000000000000000000000000000000000000000000000000000000000000000000000000000000110010001101100011100100110111101110111001000000110111101101100011011000110010101101000110101010101010101010101010101010101010101010101010101010101 &
1"
#255000
0"
#256000
b1111111 %
bx0000000000000000000000000000000000000000000000000000000000000000000000000000000000000000000000000000000000000000000000000000000000000000000000000000000000000000000000000000000000000000000000000000000000000000000000000000000000000000000000000000000000000000000000000000000000000000000000000000000000000000000000000000000000000000000000000000000000000000000000000110010001101100011100100110111101110111001000000110111101101100011011000110010101101000110101010101010101010101010101010101010101010101010101010101 &
1"
#257000
0"
#258000
b10000000 %
bx00000000000000000000000000000000000000000000000000000000000000000000000000000000000000000000000000000000000000000000000000000000000000000000000000000000000000000000000000000000000000000000000000000000000000000000000000000000000000000000000000000000000000000000000000000000000000000000000000000000000000000000000000000000000000000000000000000000000000000000000000000110010001101100011100100110111101110111001000000110111101101100011011000110010101101000110101010101010101010101010101010101010101010101010101010101 &
1"
#259000
0"
#260000
b10000001 %
bx000000000000000000000000000000000000000000000000000000000000000000000000000000000000000000000000000000000000000000000000000000000000000000000000000000000000000000000000000000000000000000000000000000000000000000000000000000000000000000000000000000000000000000000000000000000000000000000000000000000000000000000000000000000000000000000000000000000000000000000000000000000110010001101100011100100110111101110111001000000110111101101100011011000110010101101000110101010101010101010101010101010101010101010101010101010101 &
1"
#261000
0"
